module gitlab.com/uzbekman2005/go-graphql

go 1.19

require (
	github.com/99designs/gqlgen v0.17.22
	github.com/vektah/gqlparser/v2 v2.5.1
	go.mongodb.org/mongo-driver v1.11.1
)

require (
	github.com/agnivade/levenshtein v1.1.1 // indirect
	github.com/golang/snappy v0.0.1 // indirect
	github.com/gorilla/websocket v1.5.0 // indirect
	github.com/hashicorp/golang-lru v0.5.4 // indirect
	github.com/klauspost/compress v1.13.6 // indirect
	github.com/mitchellh/mapstructure v1.5.0 // indirect
	github.com/montanaflynn/stats v0.0.0-20171201202039-1bf9dbcd8cbe // indirect
	github.com/pkg/errors v0.9.1 // indirect
	github.com/xdg-go/pbkdf2 v1.0.0 // indirect
	github.com/xdg-go/scram v1.1.1 // indirect
	github.com/xdg-go/stringprep v1.0.3 // indirect
	github.com/youmark/pkcs8 v0.0.0-20181117223130-1be2e3e5546d // indirect
	golang.org/x/crypto v0.0.0-20220622213112-05595931fe9d // indirect
	golang.org/x/sync v0.0.0-20220722155255-886fb9371eb4 // indirect
	golang.org/x/text v0.3.8 // indirect
)
